{
  "tasks": [
    {
      "text": "Error 500",
      "day": "Tuesday, 9:30 am",
      "reminder": false,
      "id": 1
    },
    {
      "text": "Doctor's Appointment",
      "day": "Monday, 9:00am",
      "reminder": false,
      "id": 2
    }
  ]
}